Lab0/simulation/qsim/hadd.msim.vcd
$comment
	File created using the following command:
		vcd file hadd.msim.vcd -direction
$end
$date
	Fri May 25 18:48:11 2018
$end
$version
	ModelSim Version 10.5b
$end
$timescale
	1ps
$end

$scope module lab0_vlg_vec_tst $end
$var reg 4 ! SW [3:0] $end
$var wire 1 " LEDR [2] $end
$var wire 1 # LEDR [1] $end
$var wire 1 $ LEDR [0] $end

$scope module i1 $end
$var wire 1 % gnd $end
$var wire 1 & vcc $end
$var wire 1 ' unknown $end
$var tri1 1 ( devclrn $end
$var tri1 1 ) devpor $end
$var tri1 1 * devoe $end
$var wire 1 + LEDR[0]~output_o $end
$var wire 1 , LEDR[1]~output_o $end
$var wire 1 - LEDR[2]~output_o $end
$var wire 1 . SW[0]~input_o $end
$var wire 1 / SW[2]~input_o $end
$var wire 1 0 myHalfAdder|Add0~0_combout $end
$var wire 1 1 SW[1]~input_o $end
$var wire 1 2 SW[3]~input_o $end
$var wire 1 3 myHalfAdder|Add0~1_combout $end
$var wire 1 4 myHalfAdder|Add0~2_combout $end
$upscope $end
$upscope $end
$enddefinitions $end
#0
$dumpvars
b0 !
0$
0#
0"
0%
1&
x'
1(
1)
1*
0+
0,
0-
0.
0/
00
01
02
03
04
$end
#10000
b1 !
1.
10
1+
1$
#20000
b11 !
b10 !
0.
11
13
00
0+
1,
1#
0$
#30000
b11 !
1.
10
1+
1$
#40000
b111 !
b101 !
b100 !
0.
01
1/
03
0,
0#
#50000
b101 !
1.
13
00
0+
1,
1#
0$
#60000
b111 !
b110 !
0.
11
10
1+
1$
#70000
b111 !
1.
14
03
00
0+
0,
1-
1"
0#
0$
#80000
b1111 !
b1011 !
b1001 !
b1000 !
0.
01
0/
12
04
13
1,
0-
0"
1#
#90000
b1001 !
1.
10
1+
1$
#100000
b1011 !
b1010 !
0.
11
14
03
00
0+
0,
1-
1"
0#
0$
#110000
b1011 !
1.
10
1+
1$
#120000
b1111 !
b1101 !
b1100 !
0.
01
1/
04
13
1,
0-
0"
1#
#130000
b1101 !
1.
14
03
00
0+
0,
1-
1"
0#
0$
#140000
b1111 !
b1110 !
0.
11
10
1+
1$
#150000
b1111 !
1.
13
00
0+
1,
1#
0$
#160000
b111 !
b11 !
b1 !
b0 !
0.
01
0/
02
04
03
0,
0-
0"
0#
#170000
b1 !
1.
10
1+
1$
#180000
b11 !
b10 !
0.
11
13
00
0+
1,
1#
0$
#190000
b11 !
1.
10
1+
1$
#200000
b111 !
b101 !
b100 !
0.
01
1/
03
0,
0#
#210000
b101 !
1.
13
00
0+
1,
1#
0$
#220000
b111 !
b110 !
0.
11
10
1+
1$
#230000
b111 !
1.
14
03
00
0+
0,
1-
1"
0#
0$
#240000
b1111 !
b1011 !
b1001 !
b1000 !
0.
01
0/
12
04
13
1,
0-
0"
1#
#250000
b1001 !
1.
10
1+
1$
#260000
b1011 !
b1010 !
0.
11
14
03
00
0+
0,
1-
1"
0#
0$
#270000
b1011 !
1.
10
1+
1$
#280000
b1111 !
b1101 !
b1100 !
0.
01
1/
04
13
1,
0-
0"
1#
#290000
b1101 !
1.
14
03
00
0+
0,
1-
1"
0#
0$
#300000
b1111 !
b1110 !
0.
11
10
1+
1$
#310000
b1111 !
1.
13
00
0+
1,
1#
0$
#320000
b111 !
b11 !
b1 !
b0 !
0.
01
0/
02
04
03
0,
0-
0"
0#
#330000
b1 !
1.
10
1+
1$
#340000
b11 !
b10 !
0.
11
13
00
0+
1,
1#
0$
#350000
b11 !
1.
10
1+
1$
#360000
b111 !
b101 !
b100 !
0.
01
1/
03
0,
0#
#370000
b101 !
1.
13
00
0+
1,
1#
0$
#380000
b111 !
b110 !
0.
11
10
1+
1$
#390000
b111 !
1.
14
03
00
0+
0,
1-
1"
0#
0$
#400000
b1111 !
b1011 !
b1001 !
b1000 !
0.
01
0/
12
04
13
1,
0-
0"
1#
#410000
b1001 !
1.
10
1+
1$
#420000
b1011 !
b1010 !
0.
11
14
03
00
0+
0,
1-
1"
0#
0$
#430000
b1011 !
1.
10
1+
1$
#440000
b1111 !
b1101 !
b1100 !
0.
01
1/
04
13
1,
0-
0"
1#
#450000
b1101 !
1.
14
03
00
0+
0,
1-
1"
0#
0$
#460000
b1111 !
b1110 !
0.
11
10
1+
1$
#470000
b1111 !
1.
13
00
0+
1,
1#
0$
#480000
b111 !
b11 !
b1 !
b0 !
0.
01
0/
02
04
03
0,
0-
0"
0#
#490000
b1 !
1.
10
1+
1$
#500000
b11 !
b10 !
0.
11
13
00
0+
1,
1#
0$
#510000
b11 !
1.
10
1+
1$
#520000
b111 !
b101 !
b100 !
0.
01
1/
03
0,
0#
#530000
b101 !
1.
13
00
0+
1,
1#
0$
#540000
b111 !
b110 !
0.
11
10
1+
1$
#550000
b111 !
1.
14
03
00
0+
0,
1-
1"
0#
0$
#560000
b1111 !
b1011 !
b1001 !
b1000 !
0.
01
0/
12
04
13
1,
0-
0"
1#
#570000
b1001 !
1.
10
1+
1$
#580000
b1011 !
b1010 !
0.
11
14
03
00
0+
0,
1-
1"
0#
0$
#590000
b1011 !
1.
10
1+
1$
#600000
b1111 !
b1101 !
b1100 !
0.
01
1/
04
13
1,
0-
0"
1#
#610000
b1101 !
1.
14
03
00
0+
0,
1-
1"
0#
0$
#620000
b1111 !
b1110 !
0.
11
10
1+
1$
#630000
b1111 !
1.
13
00
0+
1,
1#
0$
#640000
b111 !
b11 !
b1 !
b0 !
0.
01
0/
02
04
03
0,
0-
0"
0#
#650000
b1 !
1.
10
1+
1$
#660000
b11 !
b10 !
0.
11
13
00
0+
1,
1#
0$
#670000
b11 !
1.
10
1+
1$
#680000
b111 !
b101 !
b100 !
0.
01
1/
03
0,
0#
#690000
b101 !
1.
13
00
0+
1,
1#
0$
#700000
b111 !
b110 !
0.
11
10
1+
1$
#710000
b111 !
1.
14
03
00
0+
0,
1-
1"
0#
0$
#720000
b1111 !
b1011 !
b1001 !
b1000 !
0.
01
0/
12
04
13
1,
0-
0"
1#
#730000
b1001 !
1.
10
1+
1$
#740000
b1011 !
b1010 !
0.
11
14
03
00
0+
0,
1-
1"
0#
0$
#750000
b1011 !
1.
10
1+
1$
#760000
b1111 !
b1101 !
b1100 !
0.
01
1/
04
13
1,
0-
0"
1#
#770000
b1101 !
1.
14
03
00
0+
0,
1-
1"
0#
0$
#780000
b1111 !
b1110 !
0.
11
10
1+
1$
#790000
b1111 !
1.
13
00
0+
1,
1#
0$
#800000
b111 !
b11 !
b1 !
b0 !
0.
01
0/
02
04
03
0,
0-
0"
0#
#810000
b1 !
1.
10
1+
1$
#820000
b11 !
b10 !
0.
11
13
00
0+
1,
1#
0$
#830000
b11 !
1.
10
1+
1$
#840000
b111 !
b101 !
b100 !
0.
01
1/
03
0,
0#
#850000
b101 !
1.
13
00
0+
1,
1#
0$
#860000
b111 !
b110 !
0.
11
10
1+
1$
#870000
b111 !
1.
14
03
00
0+
0,
1-
1"
0#
0$
#880000
b1111 !
b1011 !
b1001 !
b1000 !
0.
01
0/
12
04
13
1,
0-
0"
1#
#890000
b1001 !
1.
10
1+
1$
#900000
b1011 !
b1010 !
0.
11
14
03
00
0+
0,
1-
1"
0#
0$
#910000
b1011 !
1.
10
1+
1$
#920000
b1111 !
b1101 !
b1100 !
0.
01
1/
04
13
1,
0-
0"
1#
#930000
b1101 !
1.
14
03
00
0+
0,
1-
1"
0#
0$
#940000
b1111 !
b1110 !
0.
11
10
1+
1$
#950000
b1111 !
1.
13
00
0+
1,
1#
0$
#960000
b111 !
b11 !
b1 !
b0 !
0.
01
0/
02
04
03
0,
0-
0"
0#
#970000
b1 !
1.
10
1+
1$
#980000
b11 !
b10 !
0.
11
13
00
0+
1,
1#
0$
#990000
b11 !
1.
10
1+
1$
#999000
b1 !
b0 !
0.
01
03
00
0+
0,
0#
0$
